{
  "page": 1,
  "total_results": 103,
  "total_pages": 6,
  "results": [
    {
      "vote_count": 3123,
      "id": 268,
      "video": false,
      "vote_average": 7.1,
      "title": "Batman",
      "popularity": 10.008,
      "poster_path": "/kBf3g9crrADGMc2AMAMlLBgSm2h.jpg",
      "original_language": "en",
      "original_title": "Batman",
      "genre_ids": [
        14,
        28
      ],
      "backdrop_path": "/2blmxp2pr4BhwQr74AdCfwgfMOb.jpg",
      "adult": false,
      "overview": "The Dark Knight of Gotham City begins his war on crime with his first major enemy being the clownishly homicidal Joker, who has seized control of Gotham's underworld.",
      "release_date": "1989-06-23"
    },
    {
      "vote_count": 309,
      "id": 2661,
      "video": false,
      "vote_average": 6.2,
      "title": "Batman",
      "popularity": 8.372,
      "poster_path": "/udDVJXtAFsQ8DimrXkVFqy4DGEQ.jpg",
      "original_language": "en",
      "original_title": "Batman",
      "genre_ids": [
        10751,
        12,
        35,
        878,
        80
      ],
      "backdrop_path": "/5gcdof2PKH1emllBdN1VXU706IP.jpg",
      "adult": false,
      "overview": "The Dynamic Duo faces four super-villains who plan to hold the world for ransom with the help of a secret invention that instantly dehydrates people.",
      "release_date": "1966-07-30"
    },
    {
      "vote_count": 10243,
      "id": 272,
      "video": false,
      "vote_average": 7.6,
      "title": "Batman Begins",
      "popularity": 25.594,
      "poster_path": "/dr6x4GyyegBWtinPBzipY02J2lV.jpg",
      "original_language": "en",
      "original_title": "Batman Begins",
      "genre_ids": [
        28,
        80,
        18
      ],
      "backdrop_path": "/65JWXDCAfwHhJKnDwRnEgVB411X.jpg",
      "adult": false,
      "overview": "Driven by tragedy, billionaire Bruce Wayne dedicates his life to uncovering and defeating the corruption that plagues his home, Gotham City.  Unable to work within the system, he instead creates a new identity, a symbol of fear for the criminal underworld - The Batman.",
      "release_date": "2005-06-10"
    },
    {
      "vote_count": 2525,
      "id": 364,
      "video": false,
      "vote_average": 6.8,
      "title": "Batman Returns",
      "popularity": 12.476,
      "poster_path": "/jX5THE1yW3zTdeD9dupcIyQvKiG.jpg",
      "original_language": "en",
      "original_title": "Batman Returns",
      "genre_ids": [
        28,
        14
      ],
      "backdrop_path": "/reQewz6KndV7Js2mfLfaaX8Rj0T.jpg",
      "adult": false,
      "overview": "Having defeated the Joker, Batman now faces the Penguin - a warped and deformed individual who is intent on being accepted into Gotham society. Crooked businessman Max Schreck is coerced into helping him become Mayor of Gotham and they both attempt to expose Batman in a different light. Selina Kyle, Max's secretary, is thrown from the top of a building and is transformed into Catwoman - a mysterious figure who has the same personality disorder as Batman. Batman must attempt to clear his name, all the time deciding just what must be done with the Catwoman.",
      "release_date": "1992-06-19"
    },
    {
      "vote_count": 2148,
      "id": 415,
      "video": false,
      "vote_average": 4.2,
      "title": "Batman & Robin",
      "popularity": 12.614,
      "poster_path": "/79AYCcxw3kSKbhGpx1LiqaCAbwo.jpg",
      "original_language": "en",
      "original_title": "Batman & Robin",
      "genre_ids": [
        878,
        28,
        14,
        35
      ],
      "backdrop_path": "/39jbxGwfR4wHBV7apo3JiNdHDHq.jpg",
      "adult": false,
      "overview": "Along with crime-fighting partner Robin and new recruit Batgirl, Batman battles the dual threat of frosty genius Mr. Freeze and homicidal horticulturalist Poison Ivy. Freeze plans to put Gotham City on ice, while Ivy tries to drive a wedge between the dynamic duo.",
      "release_date": "1997-06-20"
    },
    {
      "vote_count": 2238,
      "id": 414,
      "video": false,
      "vote_average": 5.3,
      "title": "Batman Forever",
      "popularity": 9.972,
      "poster_path": "/eTMrHEhlFPHNxpqGwpGGTdAa0xV.jpg",
      "original_language": "en",
      "original_title": "Batman Forever",
      "genre_ids": [
        28,
        80,
        14
      ],
      "backdrop_path": "/bbaiw9VmrHXY3mhCDpj5XB2I5We.jpg",
      "adult": false,
      "overview": "The Dark Knight of Gotham City confronts a dastardly duo: Two-Face and the Riddler. Formerly District Attorney Harvey Dent, Two-Face believes Batman caused the courtroom accident which left him disfigured on one side. And Edward Nygma, computer-genius and former employee of millionaire Bruce Wayne, is out to get the philanthropist; as The Riddler. Former circus acrobat Dick Grayson, his family killed by Two-Face, becomes Wayne's ward and Batman's new partner Robin.",
      "release_date": "1995-06-16"
    },
    {
      "vote_count": 14,
      "id": 125249,
      "video": false,
      "vote_average": 6.5,
      "title": "Batman",
      "popularity": 2.269,
      "poster_path": "/7wnRn8iQ0QInEK1CaZFqw1zPhht.jpg",
      "original_language": "en",
      "original_title": "Batman",
      "genre_ids": [
        28
      ],
      "backdrop_path": "/xEG5iP1qZCiDt4BefSpLy1d54zE.jpg",
      "adult": false,
      "overview": "Japanese master spy Daka operates a covert espionage-sabotage organization located in Gotham City's now-deserted Little Tokyo, which turns American scientists into pliable zombies.",
      "release_date": "1943-07-16"
    },
    {
      "vote_count": 145,
      "id": 485942,
      "video": false,
      "vote_average": 5.9,
      "title": "Batman Ninja",
      "popularity": 14.009,
      "poster_path": "/5xSB0Npkc9Fd9kahKBsq9P4Cdzp.jpg",
      "original_language": "ja",
      "original_title": "ニンジャバットマン",
      "genre_ids": [
        28,
        16
      ],
      "backdrop_path": "/cDbJAqGIsnpJfiNiYNBQYQs0ZWY.jpg",
      "adult": false,
      "overview": "Gorilla Grodd's time displacement machine transports many of Batman's worst enemies to feudal Japan, along with the Dark Knight and a few of his allies.",
      "release_date": "2018-04-24"
    },
    {
      "vote_count": 2336,
      "id": 324849,
      "video": false,
      "vote_average": 7.2,
      "title": "The Lego Batman Movie",
      "popularity": 12.108,
      "poster_path": "/1pHOqpdCYNmtRVJs6pGKQKttrPm.jpg",
      "original_language": "en",
      "original_title": "The Lego Batman Movie",
      "genre_ids": [
        28,
        16,
        35,
        10751,
        14
      ],
      "backdrop_path": "/jqnbac3oind5VOcAN0mTXyapOGh.jpg",
      "adult": false,
      "overview": "In the irreverent spirit of fun that made “The Lego Movie” a worldwide phenomenon, the self-described leading man of that ensemble—Lego Batman—stars in his own big-screen adventure. But there are big changes brewing in Gotham, and if he wants to save the city from The Joker’s hostile takeover, Batman may have to drop the lone vigilante thing, try to work with others and maybe, just maybe, learn to lighten up.",
      "release_date": "2017-02-08"
    },
    {
      "vote_count": 187,
      "id": 471474,
      "video": false,
      "vote_average": 6.6,
      "title": "Batman: Gotham by Gaslight",
      "popularity": 10.23,
      "poster_path": "/7souLi5zqQCnpZVghaXv0Wowi0y.jpg",
      "original_language": "en",
      "original_title": "Batman: Gotham by Gaslight",
      "genre_ids": [
        53,
        28,
        16,
        878
      ],
      "backdrop_path": "/9ojJB7vZR2uDqXdxOzYaADthEBT.jpg",
      "adult": false,
      "overview": "In an alternative Victorian Age Gotham City, Batman begins his war on crime while he investigates a new series of murders by Jack the Ripper.",
      "release_date": "2018-01-12"
    },
    {
      "vote_count": 10168,
      "id": 209112,
      "video": false,
      "vote_average": 5.8,
      "title": "Batman v Superman: Dawn of Justice",
      "popularity": 26.4,
      "poster_path": "/cGOPbv9wA5gEejkUN892JrveARt.jpg",
      "original_language": "en",
      "original_title": "Batman v Superman: Dawn of Justice",
      "genre_ids": [
        28,
        12,
        14
      ],
      "backdrop_path": "/vsjBeMPZtyB7yNsYY56XYxifaQZ.jpg",
      "adult": false,
      "overview": "Fearing the actions of a god-like Super Hero left unchecked, Gotham City’s own formidable, forceful vigilante takes on Metropolis’s most revered, modern-day savior, while the world wrestles with what sort of hero it really needs. And with Batman and Superman at war with one another, a new threat quickly arises, putting mankind in greater danger than it’s ever known before.",
      "release_date": "2016-03-23"
    },
    {
      "vote_count": 220,
      "id": 408648,
      "video": false,
      "vote_average": 5.9,
      "title": "Batman and Harley Quinn",
      "popularity": 7.307,
      "poster_path": "/dPsjte846EcEWQpfMmGHrTWIJd8.jpg",
      "original_language": "en",
      "original_title": "Batman and Harley Quinn",
      "genre_ids": [
        12,
        28,
        16,
        878
      ],
      "backdrop_path": "/2JVnUtyUKbQm165cXUF9r5iVPDo.jpg",
      "adult": false,
      "overview": "Batman and Nightwing are forced to team with the Joker's sometimes-girlfriend Harley Quinn to stop a global threat brought about by Poison Ivy and Jason Woodrue, the Floronic Man.",
      "release_date": "2017-08-14"
    },
    {
      "vote_count": 335,
      "id": 14919,
      "video": false,
      "vote_average": 7.6,
      "title": "Batman: Mask of the Phantasm",
      "popularity": 8.101,
      "poster_path": "/l4jaQjkgznu2Rz05X18f24UjPNW.jpg",
      "original_language": "en",
      "original_title": "Batman: Mask of the Phantasm",
      "genre_ids": [
        28,
        12,
        16,
        10751
      ],
      "backdrop_path": "/jTwt4fcYADv758PVP6DH8ryy4R.jpg",
      "adult": false,
      "overview": "An old flame of Bruce Wayne's strolls into town, re-heating up the romance between the two. At the same time, a mass murderer with an axe for one hand begins systematically eliminating Gotham's crime bosses. Due to the person's dark appearance, he is mistaken for Batman. Now on the run, Batman must solve the mystery and deal with the romance between him and Andrea Beaumont.",
      "release_date": "1993-12-25"
    },
    {
      "vote_count": 424,
      "id": 242643,
      "video": false,
      "vote_average": 7.2,
      "title": "Batman: Assault on Arkham",
      "popularity": 7.142,
      "poster_path": "/nYOoqnGuiUUNE4gccO0JJigfACP.jpg",
      "original_language": "en",
      "original_title": "Batman: Assault on Arkham",
      "genre_ids": [
        53,
        16,
        28,
        80
      ],
      "backdrop_path": "/rZhblFe1Y9IheA47fO3i0b0qdvt.jpg",
      "adult": false,
      "overview": "Based on the hit video game series, Batman must find a bomb planted by the Joker while dealing with a mysterious team of villains called, The Suicide Squad.",
      "release_date": "2014-08-12"
    },
    {
      "vote_count": 308,
      "id": 321528,
      "video": false,
      "vote_average": 6.9,
      "title": "Batman vs. Robin",
      "popularity": 6.03,
      "poster_path": "/6g7iQJAgyDn9mep98RXhLI64RcA.jpg",
      "original_language": "en",
      "original_title": "Batman vs. Robin",
      "genre_ids": [
        28,
        12,
        16
      ],
      "backdrop_path": "/oERfMmGc1GJRnC8IuFUH7zpR5z5.jpg",
      "adult": false,
      "overview": "Damian Wayne is having a hard time coping with his father's \"no killing\" rule. Meanwhile, Gotham is going through hell with threats such as the insane Dollmaker, and the secretive Court of Owls.",
      "release_date": "2015-04-14"
    },
    {
      "vote_count": 241,
      "id": 13851,
      "video": false,
      "vote_average": 6.6,
      "title": "Batman: Gotham Knight",
      "popularity": 7.092,
      "poster_path": "/eIAhXROHG8t3QQ7qU0HfZgL5XFf.jpg",
      "original_language": "en",
      "original_title": "Batman: Gotham Knight",
      "genre_ids": [
        16,
        28,
        12
      ],
      "backdrop_path": "/cAW1NAahXhBUFJZgicBIGPs2OkZ.jpg",
      "adult": false,
      "overview": "Explore Bruce Wayne's transition from his beginning as a tormented vigilantee to The Dark Knight of a crumbling metropolis with six distinct chapters but intended to be viewed as a whole.",
      "release_date": "2008-07-03"
    },
    {
      "vote_count": 706,
      "id": 382322,
      "video": false,
      "vote_average": 6.2,
      "title": "Batman: The Killing Joke",
      "popularity": 6.485,
      "poster_path": "/zm0ODjtfJfJW0W269LqsQl5OhJ8.jpg",
      "original_language": "en",
      "original_title": "Batman: The Killing Joke",
      "genre_ids": [
        28,
        16,
        80,
        18
      ],
      "backdrop_path": "/iYrE2zV1DfZ3l7Lh4frHzNwFncq.jpg",
      "adult": false,
      "overview": "As Batman hunts for the escaped Joker, the Clown Prince of Crime attacks the Gordon family to prove a diabolical point mirroring his own fall into madness. Based on the graphic novel by Alan Moore and Brian Bolland.",
      "release_date": "2016-07-21"
    },
    {
      "vote_count": 345,
      "id": 69735,
      "video": false,
      "vote_average": 7.2,
      "title": "Batman: Year One",
      "popularity": 6.216,
      "poster_path": "/bI1YVuhBN6Vws1GP9Mf01DyhC2s.jpg",
      "original_language": "en",
      "original_title": "Batman: Year One",
      "genre_ids": [
        28,
        12,
        16,
        80,
        878,
        9648
      ],
      "backdrop_path": "/hAhMOPPPxzCKsCu5rUMYdwS8Yb5.jpg",
      "adult": false,
      "overview": "Two men come to Gotham City: Bruce Wayne after years abroad feeding his lifelong obsession for justice and Jim Gordon after being too honest a cop with the wrong people elsewhere. After learning painful lessons about the city's corruption on its streets and police department respectively, this pair learn how to fight back their own way. With that, Gotham's evildoers from top to bottom are terrorized by the mysterious Batman and the equally heroic Gordon is assigned to catch him by comrades who both hate and fear him themselves. In the ensuing manhunt, both find much in common as the seeds of an unexpected friendship are laid with additional friends and rivals helping to start the legend.",
      "release_date": "2011-09-27"
    },
    {
      "vote_count": 51,
      "id": 464882,
      "video": false,
      "vote_average": 6.3,
      "title": "Batman vs. Two-Face",
      "popularity": 5.991,
      "poster_path": "/yTbj8Kcp4WFwMRdEejnn55KIsfH.jpg",
      "original_language": "en",
      "original_title": "Batman vs. Two-Face",
      "genre_ids": [
        28,
        16
      ],
      "backdrop_path": "/zuBoGr3DiGMjNC6W02YbtbeW0E1.jpg",
      "adult": false,
      "overview": "Former Gotham City District Attorney Harvey Dent, one side of his face scarred by acid, goes on a crime spree based on the number '2'. All of his actions are decided by the flip of a defaced, two-headed silver dollar.",
      "release_date": "2017-11-14"
    },
    {
      "vote_count": 246,
      "id": 45162,
      "video": false,
      "vote_average": 6.9,
      "title": "Superman/Batman: Apocalypse",
      "popularity": 5.872,
      "poster_path": "/wNtrbql45NqvomsYKr3uHXgFj2D.jpg",
      "original_language": "en",
      "original_title": "Superman/Batman: Apocalypse",
      "genre_ids": [
        28,
        12,
        16,
        10751,
        878
      ],
      "backdrop_path": "/bMNEElThWSUgzFUOn5SYU4eHYXG.jpg",
      "adult": false,
      "overview": "Batman discovers a mysterious teen-aged girl with superhuman powers and a connection to Superman. When the girl comes to the attention of Darkseid, the evil overlord of Apokolips, events take a decidedly dangerous turn.",
      "release_date": "2010-09-28"
    }
  ]
}